{
  "sections": {
    "main": {
      "type": "page-faqs",
      "blocks": {
        "accordion-1": {
          "type": "accordion",
          "settings": {
            "tab_id": "safety",
            "title": "WHAT IS AFROUNION?",
            "background_image": "shopify:\/\/shop_images\/new_black.png",
            "title_image": "shopify:\/\/shop_images\/GeneralAdmissionIncludes.png",
            "content": "<p>AfroUnion is an event centered around building a connection between the Black community and the African diaspora & building knowledge of lost traditions. The mission of AfroUnion is to provide a vital and inclusive place to feel at home and expand knowledge that is otherwise scattered throughout the diaspora. <br\/><\/p>",
            "background": "#1a1818",
            "text_color": "#ffb800",
            "open": false
          }
        },
        "accordion-2": {
          "type": "accordion",
          "settings": {
            "tab_id": "getting",
            "title": "WHERE DO I BUY TICKETS?",
            "background_image": "shopify:\/\/shop_images\/greenbg_4x_1.png",
            "title_image": "shopify:\/\/shop_images\/GeneralAdmissionIncludes.png",
            "content": "<p>General Admission presale tickets begin April 18th at 10 AM PST. Only tickets purchased through the official Chop Life website (choplife.org) are guaranteed to be valid. <\/p>",
            "background": "#00944a",
            "text_color": "#1a1818",
            "open": false
          }
        },
        "accordion-3": {
          "type": "accordion",
          "settings": {
            "tab_id": "covid",
            "title": "HOW OLD DO I HAVE TO BE TO ATTEND AFROUNION?",
            "background_image": "shopify:\/\/shop_images\/redbg_4x_1.png",
            "title_image": "shopify:\/\/shop_images\/GeneralAdmissionIncludes.png",
            "content": "<p>You need to be at least 18 years old to attend AfroUnion. <\/p>",
            "background": "#be031e",
            "text_color": "#ffffff",
            "open": false
          }
        },
        "accordion-4": {
          "type": "accordion",
          "settings": {
            "tab_id": "safety",
            "title": "IS THE EVENT GENERAL ADMISSION? DO YOU HAVE VIP?",
            "background_image": "shopify:\/\/shop_images\/orangebg_4x_1.png",
            "title_image": "shopify:\/\/shop_images\/GeneralAdmissionIncludes.png",
            "content": "<p>There will only be general admission tickets available for this event. We’re treating all our guests as VIP without the VIP pricing!<\/p>",
            "background": "#db8131",
            "text_color": "#1a1818",
            "open": false
          }
        },
        "accordion-5": {
          "type": "accordion",
          "settings": {
            "tab_id": "safety",
            "title": "WHEN DOES WILL CALL OPEN?",
            "background_image": "shopify:\/\/shop_images\/purplebg_4x_1.png",
            "title_image": "shopify:\/\/shop_images\/GeneralAdmissionIncludes.png",
            "content": "<p>Will Call will be open from 12 PM to 6 PM Saturday, June 4th.<\/p>",
            "background": "#8f3694",
            "text_color": "#ffffff",
            "open": false
          }
        },
        "25441541-1c25-4090-ba0b-55035780bd9b": {
          "type": "accordion",
          "settings": {
            "tab_id": "safety",
            "title": "WHERE IS THE ENTRANCE?",
            "background_image": "shopify:\/\/shop_images\/new_black.png",
            "title_image": "shopify:\/\/shop_images\/GeneralAdmissionIncludes__2.png",
            "content": "<p>The entrance to the event is located on Grand Ave. You will not be able to enter from Hill St.<\/p>",
            "background": "#1a1818",
            "text_color": "#ffb800",
            "open": false
          }
        },
        "43fdf182-7fa6-4207-8c49-b28cd60081c8": {
          "type": "accordion",
          "settings": {
            "tab_id": "food",
            "title": "WHAT TIME DO DOORS OPEN?",
            "background_image": "shopify:\/\/shop_images\/greenbg_4x_1.png",
            "title_image": "shopify:\/\/shop_images\/GeneralAdmissionIncludes__2.png",
            "content": "<p>The doors to the event open at 12PM.<\/p>",
            "background": "#00944a",
            "text_color": "#1a1818",
            "open": false
          }
        },
        "0ef3b4eb-8ceb-4007-b1de-7b8977c1b274": {
          "type": "accordion",
          "settings": {
            "tab_id": "food",
            "title": "WHAT TIME DOES THE EVENT END?",
            "background_image": "shopify:\/\/shop_images\/redbg_4x_1.png",
            "title_image": "shopify:\/\/shop_images\/GeneralAdmissionIncludes__2.png",
            "content": "<p>The event ends at 8PM.<\/p>",
            "background": "#be031e",
            "text_color": "#ffffff",
            "open": false
          }
        },
        "683ea4c8-02cc-4fe1-9798-d08a0362f14d": {
          "type": "accordion",
          "settings": {
            "tab_id": "food",
            "title": "IS THERE RE-ENTRY INTO THE FESTIVAL?",
            "background_image": "shopify:\/\/shop_images\/orangebg_4x_1.png",
            "title_image": "shopify:\/\/shop_images\/GeneralAdmissionIncludes__2.png",
            "content": "<p>Re-Entry will only be allowed with proof of your wristband and re-entry stamp.<\/p>",
            "background": "#db8131",
            "text_color": "#1a1818",
            "open": false
          }
        },
        "aee8a916-9206-485c-9fbb-e2b43f3945c8": {
          "type": "accordion",
          "settings": {
            "tab_id": "food",
            "title": "DO I GET A WRISTBAND UPON ENTERING THE VENUE?",
            "background_image": "shopify:\/\/shop_images\/purplebg_4x_1.png",
            "title_image": "shopify:\/\/shop_images\/GeneralAdmissionIncludes__2.png",
            "content": "<p>Tickets purchased far enough in advance will have their wristband mailed to them. Further instructions for how to use your wristband will be included in the package. Wristbands are single-use. Please do not put on your wristband until the day of the event. Wristbands that are destroyed or cut will not be accepted for admittance to the event.<\/p><p>Tickets purchased closer to the event, or by international customers, can pick up their wristbands at the will call desk near the venue entrance.<\/p>",
            "background": "#903296",
            "text_color": "#ffffff",
            "open": false
          }
        },
        "5735eae5-fe70-4671-b727-d882f69dc06f": {
          "type": "accordion",
          "settings": {
            "tab_id": "food",
            "title": "WHAT CAN I BRING? WHAT CAN’T I BRING?",
            "background_image": "shopify:\/\/shop_images\/new_black.png",
            "title_image": "shopify:\/\/shop_images\/GeneralAdmissionIncludes__2.png",
            "content": "<p>You can view all things prohibited and not on the Security page.<\/p>",
            "background": "#1a1818",
            "text_color": "#ffb800",
            "open": false
          }
        },
        "0344b5cc-fb46-4c31-8961-10067172d900": {
          "type": "accordion",
          "settings": {
            "tab_id": "food",
            "title": "WHERE ARE THE ATMS LOCATED?",
            "background_image": "shopify:\/\/shop_images\/greenbg_4x_1_1.png",
            "title_image": "shopify:\/\/shop_images\/GeneralAdmissionIncludes__2.png",
            "content": "<p>AfroUnion is a cashless event this year. There are no ATMs on site. Individual vendors that take cash will be the only possible source of cash.<\/p>",
            "background": "#00944a",
            "text_color": "#1a1818",
            "open": false
          }
        },
        "25e14ac4-57cb-4504-9018-b5e5622af13f": {
          "type": "accordion",
          "settings": {
            "tab_id": "food",
            "title": "WILL THERE BE ARTIST MERCH? AFROUNION MERCH?",
            "background_image": "shopify:\/\/shop_images\/redbg_4x_1.png",
            "title_image": "shopify:\/\/shop_images\/GeneralAdmissionIncludes__2.png",
            "content": "<p>AfroUnion merch and artist merchandise will be sold at the Event Merch Booth.<\/p>",
            "background": "#be031e",
            "text_color": "#ffffff",
            "open": false
          }
        },
        "cc4fd5be-1415-4610-9209-a90f4341f095": {
          "type": "accordion",
          "settings": {
            "tab_id": "food",
            "title": "WILL THERE BE WATER REFILL STATIONS?",
            "background_image": "shopify:\/\/shop_images\/orangebg_4x_1.png",
            "title_image": "shopify:\/\/shop_images\/GeneralAdmissionIncludes__2.png",
            "content": "<p>There will be very limited water refill stations at the Event. Festival water may be purchased at one of our AfroUnion drink booths<\/p>",
            "background": "#db8131",
            "text_color": "#1a1818",
            "open": false
          }
        },
        "b3b8322f-e77d-4923-b749-6fe04fa1ff02": {
          "type": "accordion",
          "settings": {
            "tab_id": "food",
            "title": "WHERE ARE THE RESTROOMS? FOOD? WATER BOOTHS? MEDICAL?",
            "background_image": "shopify:\/\/shop_images\/purplebg_4x_1.png",
            "title_image": "shopify:\/\/shop_images\/GeneralAdmissionIncludes__2.png",
            "content": "<p>A map detailing all service and experience locations will be provided closer to the festival date.<\/p>",
            "background": "#903296",
            "text_color": "#ffffff",
            "open": false
          }
        },
        "2d5fc957-479c-44d0-a867-e1bd29039b41": {
          "type": "accordion",
          "settings": {
            "tab_id": "food",
            "title": "IS THE FESTIVAL RAIN OR SHINE?",
            "background_image": "shopify:\/\/shop_images\/new_black.png",
            "title_image": "shopify:\/\/shop_images\/GeneralAdmissionIncludes__2.png",
            "content": "<p>The event will be postponed and rescheduled due to inclement weather. All tickets will be honored for the new event date.<\/p>",
            "background": "#1a1818",
            "text_color": "#ffb800",
            "open": false
          }
        },
        "e63378c9-c651-4cfd-a431-9ad930848b0d": {
          "type": "accordion",
          "settings": {
            "tab_id": "food",
            "title": "WHERE IS LOST AND FOUND?",
            "background_image": "shopify:\/\/shop_images\/greenbg_4x_1_1.png",
            "title_image": "shopify:\/\/shop_images\/GeneralAdmissionIncludes__2.png",
            "content": "<p>Lost and Found is located at the Guest Services booth.<\/p>",
            "background": "#00944a",
            "text_color": "#1a1818",
            "open": false
          }
        },
        "d7f32d69-391c-4e5d-b928-1f7330851159": {
          "type": "accordion",
          "settings": {
            "tab_id": "food",
            "title": "WILL I BE SEARCHED UPON ENTRY?",
            "background_image": "shopify:\/\/shop_images\/redbg_4x_1.png",
            "title_image": "shopify:\/\/shop_images\/GeneralAdmissionIncludes__2.png",
            "content": "<p>Yes, event security will search all persons and bags prior to entry. Please review the prohibited items list if you aren’t sure whether or not you can bring something.<\/p>",
            "background": "#be031e",
            "text_color": "#ffffff",
            "open": false
          }
        },
        "d74c49d6-d6df-4b5b-9d1a-548315805cab": {
          "type": "accordion",
          "settings": {
            "tab_id": "food",
            "title": "CAN I BRING OUTSIDE FOOD & DRINKS?",
            "background_image": "shopify:\/\/shop_images\/orangebg_4x_1.png",
            "title_image": "shopify:\/\/shop_images\/GeneralAdmissionIncludes__2.png",
            "content": "<p>No, only a recyclable container for water. Plenty of food and beverage options will be on site. Please check back later for a full listing of food and beverage vendors.<\/p>",
            "background": "#db8131",
            "text_color": "#1a1818",
            "open": false
          }
        },
        "d2484a05-358d-4172-bd63-253a5ef708f8": {
          "type": "accordion",
          "settings": {
            "tab_id": "food",
            "title": "HOW CAN MY COMPANY BECOME A SPONSOR?",
            "background_image": "shopify:\/\/shop_images\/purplebg_4x_1.png",
            "title_image": "shopify:\/\/shop_images\/GeneralAdmissionIncludes__2.png",
            "content": "<p>Email info@choplife.org to find out sponsorship information.<\/p>",
            "background": "#903296",
            "text_color": "#ffffff",
            "open": false
          }
        },
        "b3090c94-4a79-4303-b96f-9deaca6d10cd": {
          "type": "accordion",
          "settings": {
            "tab_id": "food",
            "title": "WHAT KIND OF ID DO I NEED TO BUY DRINKS AND PICK UP TICKETS?",
            "background_image": "shopify:\/\/shop_images\/new_black.png",
            "title_image": "shopify:\/\/shop_images\/GeneralAdmissionIncludes__2.png",
            "content": "<p>Only valid (non-expired) government issued ID will be accepted.<\/p>",
            "background": "#1a1818",
            "text_color": "#ffb800",
            "open": false
          }
        },
        "2c4d1663-4a14-41e5-9787-842c3723d4d5": {
          "type": "accordion",
          "settings": {
            "tab_id": "food",
            "title": "WHEN WILL THE PERFORMANCE SCHEDULES BE RELEASED?",
            "background_image": "shopify:\/\/shop_images\/greenbg_4x_1_1.png",
            "title_image": "shopify:\/\/shop_images\/GeneralAdmissionIncludes__2.png",
            "content": "<p>Keep an eye on our social media for schedule releases and updates!<\/p>",
            "background": "#00944a",
            "text_color": "#1a1818",
            "open": false
          }
        },
        "a3a61af9-6b7f-48e6-b457-769292858b66": {
          "type": "category",
          "disabled": true,
          "settings": {
            "tab_name": "Faqs",
            "tab_link": "shopify:\/\/pages\/faqs",
            "actove": true
          }
        },
        "a8c3bc4e-ec71-408d-bc70-1bae1d0bbd52": {
          "type": "category",
          "disabled": true,
          "settings": {
            "tab_name": "Safety",
            "tab_link": "shopify:\/\/pages\/safety",
            "actove": false
          }
        },
        "58356bea-4157-40b4-abcd-de4b2aa5b13b": {
          "type": "category",
          "disabled": true,
          "settings": {
            "tab_name": "getting here",
            "tab_link": "shopify:\/\/pages\/getting-here",
            "actove": false
          }
        },
        "4d86ef18-cd66-4591-9181-27229c2120c0": {
          "type": "category",
          "disabled": true,
          "settings": {
            "tab_name": "covid-19",
            "tab_link": "shopify:\/\/pages\/covid-20",
            "actove": false
          }
        },
        "c44bd6e2-d390-4f4f-a095-fafef639c408": {
          "type": "category",
          "disabled": true,
          "settings": {
            "tab_name": "Health, safety, +security",
            "tab_link": "shopify:\/\/pages\/health-safety-and-security",
            "actove": false
          }
        },
        "ebced940-7a1f-4f9f-9ae2-345377c6d608": {
          "type": "category",
          "disabled": true,
          "settings": {
            "tab_name": "hotels + Ada",
            "tab_link": "",
            "actove": false
          }
        }
      },
      "block_order": [
        "accordion-1",
        "accordion-2",
        "accordion-3",
        "accordion-4",
        "accordion-5",
        "25441541-1c25-4090-ba0b-55035780bd9b",
        "43fdf182-7fa6-4207-8c49-b28cd60081c8",
        "0ef3b4eb-8ceb-4007-b1de-7b8977c1b274",
        "683ea4c8-02cc-4fe1-9798-d08a0362f14d",
        "aee8a916-9206-485c-9fbb-e2b43f3945c8",
        "5735eae5-fe70-4671-b727-d882f69dc06f",
        "0344b5cc-fb46-4c31-8961-10067172d900",
        "25e14ac4-57cb-4504-9018-b5e5622af13f",
        "cc4fd5be-1415-4610-9209-a90f4341f095",
        "b3b8322f-e77d-4923-b749-6fe04fa1ff02",
        "2d5fc957-479c-44d0-a867-e1bd29039b41",
        "e63378c9-c651-4cfd-a431-9ad930848b0d",
        "d7f32d69-391c-4e5d-b928-1f7330851159",
        "d74c49d6-d6df-4b5b-9d1a-548315805cab",
        "d2484a05-358d-4172-bd63-253a5ef708f8",
        "b3090c94-4a79-4303-b96f-9deaca6d10cd",
        "2c4d1663-4a14-41e5-9787-842c3723d4d5",
        "a3a61af9-6b7f-48e6-b457-769292858b66",
        "a8c3bc4e-ec71-408d-bc70-1bae1d0bbd52",
        "58356bea-4157-40b4-abcd-de4b2aa5b13b",
        "4d86ef18-cd66-4591-9181-27229c2120c0",
        "c44bd6e2-d390-4f4f-a095-fafef639c408",
        "ebced940-7a1f-4f9f-9ae2-345377c6d608"
      ],
      "settings": {
        "background": "shopify:\/\/shop_images\/Asset_3b_2x_1_631e744f-4fbc-4fd7-8885-3cbeb2ab31e8.png",
        "title": "FREQUENTLY ASKED QUESTIONS",
        "container": "container",
        "title1": "",
        "arrow_left": "shopify:\/\/shop_images\/arrow.png",
        "arrow_right": "shopify:\/\/shop_images\/arrow_1.png",
        "button_text": "buy tickets now",
        "button_link": "shopify:\/\/pages\/ticket"
      }
    }
  },
  "order": [
    "main"
  ]
}