{
  "sections": {
    "main": {
      "type": "page",
      "disabled": true,
      "settings": {}
    },
    "1648830731c71e654b": {
      "type": "page-ticket",
      "settings": {
        "image": "shopify:\/\/shop_images\/Group_1_2.png",
        "logo_image": "shopify:\/\/shop_images\/Group_1_3.png",
        "subtitle1": "Each General Admission ticket includes  general admission <br>toAfroUnion on June 4th, 2022  plus access to the following:",
        "sub_border1": "shopify:\/\/shop_images\/GeneralAdmissionIncludes__1.png",
        "text1": "<p>Performances all day at Grand Park LA <\/p><p>Food choices from regional and local African and Black vendors including vegan, vegetarian, and gluten-free options<\/p><p>Flea market supporting only local Black and African vendors<\/p><p>Exciting photo opportunities and an immersive art crawl supported by local African and Black artists<\/p><p>Bars, concessions, official band merch, festival merch, and more.<\/p><p>Plus a complimentary event swag bag!<\/p>",
        "product": "awesome-event",
        "price": "COST: $$",
        "subtitle2": "ticket policy:",
        "sub_border2": "shopify:\/\/shop_images\/vendors.png",
        "text2": "All sales are final – no refunds or exchanges\nOnly tickets purchased through Chop LIfe Events are valid.\nIf you purchased from an unauthorized source and\/or the ticket is counterfeit, you will not be allowed entry.\nAll ticket holders must pass through security and are subject to bag inspection.\nProhibited items will be confiscated by event staff.",
        "title": "",
        "arrow_left": "shopify:\/\/shop_images\/arrow.png",
        "arrow_right": "shopify:\/\/shop_images\/arrow_1.png",
        "button_text": "buy tickets now",
        "button_link": ""
      }
    },
    "1649250172985d9866": {
      "type": "page-ticket",
      "settings": {
        "image": "shopify:\/\/shop_images\/Group_1_2.png",
        "subtitle1": "Security Screening:",
        "text1": "<p>For the safety of everyone entering the event, all attendees are subject to a full and complete airport-style search prior to entry. This may include a full body pat-down and magnetometer screening before entry. If you would like to be screened by security personnel of your same gender, please let security personnel know prior to the search process. Screening of children will always take place with the consent of a parent or guardian.<\/p>",
        "product": "",
        "price": "price: $$",
        "subtitle2": "",
        "text2": "",
        "title": "",
        "button_text": "buy tickets now",
        "button_link": ""
      }
    },
    "16492501806f3f1026": {
      "type": "custom-content",
      "disabled": true,
      "blocks": {
        "1649250180d2cd5158-0": {
          "type": "text",
          "settings": {
            "title": "‍BANNED",
            "subheading": "",
            "text": "<p>NO Bad Vibes<\/p><p>‍NO Aerosol Products\/Aerosol Cans\/Aerosol Sunblock<\/p><p>‍NO Air Horns or Noisemakers<\/p><p>‍NO Alcohol of any kind<\/p><p>NO Amplified sound devices (wireless speakers, etc.)<\/p><p>‍NO Audio Recording Devices<\/p><p>‍NO AVPs or MODs or Liquid to Refill Cartridges<\/p><p>‍NO Bicycles, Skates, Scooters or Skateboards<\/p><p>‍NO Coolers (non-medical) of any kind<\/p><p>‍NO Chains or Chain Wallets<\/p><p>‍NO Detachable Lens Cameras<\/p><p>‍NO Drones<\/p><p>‍NO Drugs or Drug Paraphernalia<\/p><p>‍NO Fireworks or Explosives<\/p><p>‍NO Flyers, Samples, Giveaways or Promotional Items<\/p><p>‍NO Glass Containers<\/p><p>‍NO Glow Sticks or LED Gloves<\/p><p>‍NO Hula Hoops<\/p><p>NO Kites<\/p><p>‍NO Motorized Personal Vehicles including but not limited to Hoverboards or Segways<\/p><p>‍NO Instruments<\/p><p>‍NO Laser Pointers<\/p><p>‍NO Misters<\/p><p>‍NO Outside Food or Beverages<\/p><p>‍NO Pepper Spray or Mace<\/p><p>‍NO Pets or Other Animals (excluding Service Animals)<\/p><p>NO Professional cameras and camera equipment<\/p><p>‍NO Selfie Sticks, Tripods or Narcissists<\/p><p>‍NO Sharpies, Markers or Paint Pens<\/p><p>‍NO Stuffed Animals or Inflatables<\/p><p>‍NO Totems<\/p><p>‍NO Video Cameras<\/p><p>‍NO Walkie Talkies<\/p><p>NO Water guns and water balloons<\/p><p>‍NO Weapons of Any Kind<\/p><p>NO backpacks\/ bags that do not meet the bag policy (see bag policy-add link here)<\/p>",
            "width": "50%",
            "alignment": "center",
            "align_text": "left",
            "text_size": "medium",
            "text_color": "black",
            "button_label": "",
            "button_link": "",
            "button_style": "sf__btn-primary",
            "button_size": "",
            "block_custom_class": ""
          }
        },
        "df6e1694-f68c-4b8d-aea3-71a7417ba334": {
          "type": "text",
          "settings": {
            "title": "ALLOWED",
            "subheading": "",
            "text": "<p>YES Good Vibes<\/p><p>‍YES Binoculars<\/p><p>‍YES Cameras (Non-Pro)<\/p><p>‍YES Chapstick & Lip Balm (Sealed\/Unopened)<\/p><p>‍YES Cigarettes & Lighters (1 Pack per Guest-must be Sealed\/Unopened)<\/p><p>‍YES E-Cigs and Vape Pens<\/p><p>‍YES Ear Plugs<\/p><p>‍YES Eye Drops (Sealed\/Unopened)<\/p><p>‍YES Feminine Hygiene Items (Sealed\/Unopened)<\/p><p>‍YES GoPros & Flip Cams (no poles or sticks)<\/p><p>‍YES Hand Sanitizer & Baby Wipes<\/p><p>‍YES Hats<\/p><p>YES Makeup<\/p><p>‍YES Medication (Over-the-counter Sealed\/Unopened, Rx Must have label w\/ matching ID and all same pills – no mixing)<\/p><p>‍YES Mobile Phones & Chargers<\/p><p>‍YES Poncho & Rain Jackets<\/p><p>‍YES Sunblock (Non-Aerosol)<\/p><p>‍YES Sunglasses<\/p><p>‍YES Water Bottles (Empty, Plastic, Reusable, 32 oz, 1 per guest)<\/p>",
            "width": "50%",
            "alignment": "start",
            "align_text": "left",
            "text_size": "medium",
            "text_color": "black",
            "button_label": "",
            "button_link": "",
            "button_style": "sf__btn-primary",
            "button_size": "",
            "block_custom_class": ""
          }
        }
      },
      "block_order": [
        "1649250180d2cd5158-0",
        "df6e1694-f68c-4b8d-aea3-71a7417ba334"
      ],
      "settings": {
        "heading": "ALLOWED & PROHIBITED ITEMS",
        "subheading": "",
        "description": "Guests and their belongings are subject to search upon entry. For a stress-free entry process, please carefully review and adhere to the rules in the list on the following page:",
        "header_alignment": "center",
        "container": "container-fluid",
        "background_color": "",
        "gap": 30,
        "use_scroll_mobile": false,
        "gap_mobile": 16,
        "custom_class": ""
      }
    },
    "16492510859f111271": {
      "type": "custom-content",
      "disabled": true,
      "blocks": {
        "16492510856ab4052b-0": {
          "type": "text",
          "settings": {
            "title": "",
            "subheading": "Grand Park LA",
            "text": "<p>Grand Park is located in the heart of Downtown Los Angeles, California. The beautiful 12-acre park stretches between the Los Angeles City Hall and the Los Angeles Music Center on Grand Avenue. Although there are mulitiple ways into the park, attendee entry will only be accessible from the Grand Ave side.<\/p><p>200 N Grand Ave, Los Angeles, CA 90012<\/p><p>* Entrance to the Festival will not be accessible on Hill St.<\/p>",
            "width": "16%",
            "alignment": "start",
            "align_text": "left",
            "text_size": "medium",
            "text_color": "black",
            "button_label": "",
            "button_link": "",
            "button_style": "sf__btn-primary",
            "button_size": "",
            "block_custom_class": ""
          }
        },
        "b980e125-d51f-4a39-af4c-221e2eca088e": {
          "type": "text",
          "settings": {
            "title": "",
            "subheading": "Parking",
            "text": "<p>There is no public parking onsite at Grand Park. Chop Life does not own or operate any parking lots or special event parking. We assume no liability for parking, so park at your own risk. If you choose to park near the event either on the street or in a lot, please read all parking signs carefully. Parking in non approved areas can lead to parking tickets or your vehicle being towed and Chop Life cannot assist at all in these situations.<\/p><p>The city of Los Angeles has several lots in the Downtown area for you to choose from. <\/p>",
            "width": "16%",
            "alignment": "start",
            "align_text": "left",
            "text_size": "medium",
            "text_color": "black",
            "button_label": "",
            "button_link": "",
            "button_style": "sf__btn-primary",
            "button_size": "",
            "block_custom_class": ""
          }
        },
        "ab50e0a7-265d-42fc-b906-2d005772b12f": {
          "type": "text",
          "settings": {
            "title": "",
            "subheading": "Drop Off (Including Rideshare\/Taxis)",
            "text": "<p>There will be a designated location for all attendees being dropped off either by personal vehicle, limousine service, rideshare or taxi.<\/p>",
            "width": "16%",
            "alignment": "start",
            "align_text": "left",
            "text_size": "medium",
            "text_color": "black",
            "button_label": "",
            "button_link": "",
            "button_style": "sf__btn-primary",
            "button_size": "",
            "block_custom_class": ""
          }
        },
        "561e2100-7331-4815-bf55-b50abd1c2170": {
          "type": "text",
          "settings": {
            "title": "",
            "subheading": "Public Transportation",
            "text": "<p>The Los Angeles Metro is another source for transportation and has convenient locations throughout the Los Angeles area. Please visit their website www.metro.net\/ to plan your route.<\/p>",
            "width": "16%",
            "alignment": "start",
            "align_text": "left",
            "text_size": "medium",
            "text_color": "black",
            "button_label": "",
            "button_link": "",
            "button_style": "sf__btn-primary",
            "button_size": "",
            "block_custom_class": ""
          }
        },
        "e4403871-2ad1-42f6-9a7d-541cda99c2ab": {
          "type": "text",
          "settings": {
            "title": "",
            "subheading": "Covid-19",
            "text": "<p>Use this text to share information about your brand with your customers. Describe a product, share announcements, or welcome customers to your store.<\/p>",
            "width": "16%",
            "alignment": "start",
            "align_text": "left",
            "text_size": "medium",
            "text_color": "black",
            "button_label": "",
            "button_link": "",
            "button_style": "sf__btn-primary",
            "button_size": "",
            "block_custom_class": ""
          }
        }
      },
      "block_order": [
        "16492510856ab4052b-0",
        "b980e125-d51f-4a39-af4c-221e2eca088e",
        "ab50e0a7-265d-42fc-b906-2d005772b12f",
        "561e2100-7331-4815-bf55-b50abd1c2170",
        "e4403871-2ad1-42f6-9a7d-541cda99c2ab"
      ],
      "settings": {
        "heading": "Getting Here",
        "subheading": "",
        "description": "",
        "header_alignment": "center",
        "container": "container-fluid",
        "background_color": "",
        "gap": 30,
        "use_scroll_mobile": false,
        "gap_mobile": 16,
        "custom_class": ""
      }
    },
    "16492513288a40f513": {
      "type": "custom-content",
      "disabled": true,
      "blocks": {
        "164925132701f5897b-0": {
          "type": "text",
          "settings": {
            "title": "",
            "subheading": "ARE COVID VACCINES OR NEGATIVE TESTS REQUIRED TO ATTEND THE FESTIVAL?",
            "text": "<p>Yes. In order to gain entry to the event, the festival will require proof of COVID-19 vaccinations or negative COVID-19 test results that are obtained within 72 hours of attending the event.<\/p>",
            "width": "16%",
            "alignment": "start",
            "align_text": "left",
            "text_size": "medium",
            "text_color": "black",
            "button_label": "",
            "button_link": "",
            "button_style": "sf__btn-primary",
            "button_size": "",
            "block_custom_class": ""
          }
        },
        "ec052e43-e079-40f2-a71f-c4db6831e9cb": {
          "type": "text",
          "settings": {
            "title": "",
            "subheading": "WILL REFUNDS BE AN OPTION IF THE FESTIVAL IS CANCELED OR POSTPONED DUE TO COVID?",
            "text": "<p>If AfroUnion is postponed or rescheduled due to COVID, your event ticket will automatically be honored at the rescheduled date. Should you be unable to attend the new date for whatever reason, you will get the opportunity to request a refund.<\/p>",
            "width": "16%",
            "alignment": "start",
            "align_text": "left",
            "text_size": "medium",
            "text_color": "black",
            "button_label": "",
            "button_link": "",
            "button_style": "sf__btn-primary",
            "button_size": "",
            "block_custom_class": ""
          }
        },
        "339b01ad-5bca-47b6-9c61-0605294f97a0": {
          "type": "text",
          "settings": {
            "title": "",
            "subheading": "DO I NEED TO BE FULLY VACCINATED OR IS ONE DOSE SUFFICIENT?",
            "text": "<p>To pass the health check via vaccine verification, the attendee must be fully vaccinated. If you have only received one dose, you will need proof of a negative covid test to activate your wristband.<\/p>",
            "width": "16%",
            "alignment": "start",
            "align_text": "left",
            "text_size": "medium",
            "text_color": "black",
            "button_label": "",
            "button_link": "",
            "button_style": "sf__btn-primary",
            "button_size": "",
            "block_custom_class": ""
          }
        },
        "4c74fc63-75d4-40d1-8959-354b0b98ec7f": {
          "type": "text",
          "settings": {
            "title": "",
            "subheading": "WHAT HAPPENS IF I DON'T GET VACCINATED OR DON'T WANT TO PROVIDE A NEGATIVE COVID TEST?",
            "text": "<p>Unfortunately, without completing this key step (Negative Test\/Vaccine requirement) you will not be able to enter the event. <\/p>",
            "width": "16%",
            "alignment": "start",
            "align_text": "left",
            "text_size": "medium",
            "text_color": "black",
            "button_label": "",
            "button_link": "",
            "button_style": "sf__btn-primary",
            "button_size": "",
            "block_custom_class": ""
          }
        },
        "e3696c93-80d4-4dfa-a877-629f654d6c9e": {
          "type": "text",
          "settings": {
            "title": "",
            "subheading": "AM I REQUIRED TO WEAR A MASK TO ENTER THE FESTIVAL?",
            "text": "<p>As of now, per current local public health guidance, masks are strongly encouraged, but not required for entry. This mask requirement for entry is subject to change.<\/p>",
            "width": "16%",
            "alignment": "start",
            "align_text": "left",
            "text_size": "medium",
            "text_color": "black",
            "button_label": "",
            "button_link": "",
            "button_style": "sf__btn-primary",
            "button_size": "",
            "block_custom_class": ""
          }
        }
      },
      "block_order": [
        "164925132701f5897b-0",
        "ec052e43-e079-40f2-a71f-c4db6831e9cb",
        "339b01ad-5bca-47b6-9c61-0605294f97a0",
        "4c74fc63-75d4-40d1-8959-354b0b98ec7f",
        "e3696c93-80d4-4dfa-a877-629f654d6c9e"
      ],
      "settings": {
        "heading": "CURRENT HEALTH POLICY",
        "subheading": "",
        "description": "The safety of attendees, artists, and staff remains our top priority. Chop Life is in regular communication with local health and public safety officials and will follow all current recommendations and guidelines in place at the time of the festival. Our current festival policy requires proof of full vaccination OR proof of a negative COVID-19 test result (taken within 72 hours). As the weekend approaches, AfroUnion patrons will receive regular updates with important information regarding safety protocols, policies and procedures before entering Grand Park which will also be shared at www.choplife.org, on social media, and via the AfroUnion email list.\n<br>\nFor Additional Covid-19 Information: *Read our Full Policy* Button- link Health, Safety, and Security Page",
        "header_alignment": "center",
        "container": "container-fluid",
        "background_color": "",
        "gap": 30,
        "use_scroll_mobile": false,
        "gap_mobile": 16,
        "custom_class": ""
      }
    },
    "16492558049fe7caad": {
      "type": "page-ticket",
      "settings": {
        "subtitle1": "",
        "text1": "",
        "product": "",
        "price": "",
        "subtitle2": "",
        "text2": "",
        "title": "",
        "button_text": "buy tickets now",
        "button_link": "",
        "footer_image": "shopify:\/\/shop_images\/Frame.png"
      }
    }
  },
  "order": [
    "main",
    "1648830731c71e654b",
    "1649250172985d9866",
    "16492501806f3f1026",
    "16492510859f111271",
    "16492513288a40f513",
    "16492558049fe7caad"
  ]
}